<?xml version="1.0" encoding="utf-8"?>
<!-- Generator: Adobe Illustrator 17.0.0, SVG Export Plug-In . SVG Version: 6.00 Build 0)  -->
<!DOCTYPE svg PUBLIC "-//W3C//DTD SVG 1.1//EN" "http://www.w3.org/Graphics/SVG/1.1/DTD/svg11.dtd">
<svg version="1.1" id="Laag_1" xmlns="http://www.w3.org/2000/svg" xmlns:xlink="http://www.w3.org/1999/xlink" x="0px" y="0px"
	 width="62.362px" height="62.362px" viewBox="15.152 18.485 62.362 62.362" enable-background="new 15.152 18.485 62.362 62.362"
	 xml:space="preserve">
<g>
	<path fill="#FFFFFF" d="M48.759,20.209c0.033,0.002,0.064,0.004,0.098,0.005c0.013,0.001,0.025,0.001,0.038,0.001
		c0.006,0,0.012,0,0.018,0c0.042-0.001,0.082-0.003,0.104-0.005c1.21,0.012,2.503,0.308,2.525,3.684
		c0.021,3.205,0.011,6.561,0.001,9.807c-0.008,2.648-0.016,5.387-0.007,8.014l0.001,0.401c0.006,2.242,0.021,3.203,0.147,3.683
		c0.062,0.236,0.187,0.45,0.363,0.619c0.496,0.478,1.014,0.578,1.362,0.578c0.704,0,1.214-0.397,1.519-0.634
		c0.104-0.081,0.195-0.177,0.271-0.284l0.083-0.118c0.157-0.224,0.242-0.491,0.242-0.764V24.912c0-1.411,1.148-2.559,2.559-2.559
		s2.559,1.148,2.559,2.559v22.653c0,0.096,0.011,0.193,0.031,0.287c0.003,0.036,0.005,0.076,0.008,0.119
		c0.03,0.459,0.085,1.314,0.773,1.887c0.239,0.207,0.734,0.639,1.432,0.639c1.037,0,1.572-0.887,1.747-1.179
		c0.125-0.207,0.191-0.444,0.191-0.686V33.751c0-1.411,1.148-2.559,2.559-2.559c1.411,0,2.559,1.148,2.559,2.559v29.942
		c0.021,9.637-10.001,14.56-16.793,14.852c-0.292,0.015-0.482,0.019-0.533,0.019l-0.367-0.007
		c-3.586-0.063-14.491-0.255-21.036-7.524c-0.014-0.017-0.029-0.033-0.044-0.049c-1.292-1.356-2.479-2.925-3.528-4.663
		c-1.672-2.771-3.491-5.499-5.25-8.137c-1.101-1.652-2.24-3.36-3.326-5.053c-0.086-0.134-0.171-0.269-0.254-0.405
		c-0.01-0.017-0.021-0.033-0.031-0.049l-0.632-0.933c-0.179-0.334-0.277-0.715-0.29-1.134c-0.001-0.035-0.003-0.07-0.007-0.106
		c-0.035-0.311,0.009-0.571,0.139-0.818c0.02-0.038,0.038-0.077,0.054-0.117c0.156-0.385,0.472-0.919,1.095-1.271
		c0.385-0.217,0.818-0.332,1.256-0.332c0.923,0,1.777,0.498,2.231,1.299l0.437,0.773c0.036,0.063,0.076,0.123,0.122,0.179
		c0.22,0.273,0.643,0.874,1.092,1.511c1.398,1.986,2.443,3.436,3.167,4.004c1.269,0.995,3.274,2.011,4.894,2.036
		c0.007,0,0.013,0,0.021,0c0.094,0,0.189-0.01,0.281-0.03c1.341-0.29,2.51-1.208,3.474-2.727c0.021-0.033,0.04-0.066,0.057-0.1
		c0.329-0.632,0.579-1.305,0.723-1.946c0.022-0.096,0.033-0.194,0.033-0.293V24.912c0-1.24,0.886-2.298,2.124-2.519
		c0.045-0.009,0.092-0.015,0.135-0.021c0.007-0.001,0.045-0.005,0.051-0.007l-0.173-1.317l0.206,1.313
		c0.181-0.022,0.336-0.032,0.49-0.032l0.063,0.001c1.274,0.024,1.868,0.545,2.118,1.858c0.005,0.028,0.011,0.055,0.019,0.083
		c0.057,0.223,0.085,0.431,0.085,0.639v0.242c0,0.014,0,0.028,0.001,0.042l0.002,0.052c0.002,0.067,0.005,0.134,0.005,0.201
		c0.007,2.221,0.008,4.443,0.009,6.664c0.001,3.2,0.001,6.509,0.024,9.766c0.002,0.259,0.002,0.508,0.002,0.751
		c0,0.904,0,1.758,0.093,2.758c0.024,0.258,0.144,0.53,0.306,0.733c0.205,0.257,0.685,0.86,1.586,0.86
		c0.373,0,0.755-0.108,1.172-0.328c0.055-0.029,0.108-0.062,0.159-0.099c0.288-0.21,0.429-0.419,0.531-0.571l0.02-0.029
		c0.093-0.138,0.159-0.292,0.196-0.454c0.011-0.047,0.022-0.087,0.033-0.128c0.031-0.113,0.046-0.229,0.046-0.346V22.768
		C46.223,21.365,47.359,20.221,48.759,20.209 M48.782,18.88c-2.147,0-3.888,1.741-3.888,3.888v22.259
		c-0.016,0.058-0.031,0.117-0.047,0.184c-0.09,0.134-0.124,0.191-0.232,0.27c-0.233,0.124-0.409,0.173-0.549,0.173
		c-0.274,0-0.411-0.19-0.569-0.387c-0.112-1.201-0.08-2.194-0.089-3.396c-0.039-5.475-0.014-10.95-0.033-16.425
		c-0.001-0.098-0.004-0.195-0.007-0.291v-0.242c0-0.336-0.047-0.66-0.127-0.971c-0.319-1.674-1.266-2.899-3.398-2.938
		c-0.03-0.001-0.059-0.001-0.088-0.001c-0.229,0-0.442,0.017-0.648,0.041c-0.027,0.003-0.053,0.007-0.08,0.01
		c-0.078,0.011-0.157,0.021-0.232,0.035c-1.82,0.324-3.202,1.911-3.202,3.823v27.764c-0.12,0.534-0.332,1.099-0.607,1.626
		c-0.675,1.064-1.539,1.904-2.633,2.141c-1.278-0.02-3.004-0.898-4.095-1.753c-0.928-0.728-3.283-4.36-4.044-5.304l-0.437-0.773
		c-0.715-1.264-2.032-1.974-3.388-1.974c-0.648,0-1.305,0.162-1.911,0.504c-0.795,0.45-1.355,1.143-1.673,1.929
		c-0.268,0.512-0.341,1.042-0.282,1.581c0.019,0.609,0.164,1.222,0.485,1.788l0.666,0.983c0.088,0.142,0.177,0.284,0.267,0.425
		c2.824,4.405,5.855,8.683,8.557,13.16c1.123,1.861,2.362,3.485,3.704,4.893l0.001,0.001c7.184,7.999,19.071,7.921,22.402,7.99
		c0,0,0.225-0.001,0.608-0.021c8.085-0.348,18.076-6.125,18.053-16.182V33.751c0-2.147-1.741-3.888-3.888-3.888
		s-3.888,1.741-3.888,3.888v14.882c-0.234,0.389-0.423,0.535-0.609,0.535c-0.175,0-0.35-0.13-0.559-0.312
		c-0.379-0.316-0.282-1.015-0.356-1.292V24.912c0-2.147-1.741-3.888-3.888-3.888c-2.147,0-3.888,1.741-3.888,3.888v20.28
		c-0.083,0.118-0.083,0.118-0.083,0.118c-0.231,0.18-0.46,0.353-0.703,0.353c-0.141,0-0.286-0.058-0.44-0.207
		c-0.104-0.396-0.1-2.17-0.105-3.75c-0.019-5.834,0.043-11.991,0.006-17.824c-0.017-2.586-0.741-4.973-3.84-5.004
		c-0.002,0-0.004,0-0.007,0c-0.045,0-0.084,0.005-0.129,0.005C48.857,18.885,48.82,18.88,48.782,18.88L48.782,18.88z"/>
</g>
</svg>
