<?xml version="1.0" encoding="utf-8"?>
<!-- Generator: Adobe Illustrator 17.0.0, SVG Export Plug-In . SVG Version: 6.00 Build 0)  -->
<!DOCTYPE svg PUBLIC "-//W3C//DTD SVG 1.1//EN" "http://www.w3.org/Graphics/SVG/1.1/DTD/svg11.dtd">
<svg version="1.1" id="Glyphish_6_Icons" xmlns="http://www.w3.org/2000/svg" xmlns:xlink="http://www.w3.org/1999/xlink" x="0px"
	 y="0px" width="62.362px" height="62.362px" viewBox="0 0 62.362 62.362" enable-background="new 0 0 62.362 62.362"
	 xml:space="preserve">
<g>
	<path fill="none" stroke="#000000" stroke-miterlimit="10" d="M24.196,35.474"/>
</g>
<path fill="#FFFFFF" d="M50.539,37.974h-4.235l-6.22-19.25l-0.027,0.01l-0.115-0.358c-2.256,0.855-5.051,1.368-8.09,1.368
	c-2.964,0-5.696-0.488-7.922-1.305l-2.061,6.429l-4.358,13.105h-5.509L7.034,58.688L7.02,58.804c0,0.689,0.562,1.251,1.251,1.251
	h47.372c0.69,0,1.251-0.562,1.251-1.251L50.539,37.974z M21.783,28.298c2.984,1.586,6.451,2.509,10.163,2.509
	c3.719,0,7.19-0.926,10.178-2.517l3.715,11.495c-3.539,1.934-8.398,3.146-13.799,3.146c-5.522,0-10.478-1.266-14.034-3.277
	L21.783,28.298z M55.644,59.055H8.272c-0.124,0-0.227-0.09-0.248-0.208l4.765-19.873h4.389l-3.769,11.333h0.108
	c0.046,2.499,8.251,4.521,18.371,4.521c10.148,0,18.516-2.034,18.516-4.542h-0.121l-3.655-11.312H49.8l6.09,19.885
	C55.864,58.971,55.764,59.055,55.644,59.055z"/>
<g>
	<path fill="#FFFFFF" d="M31.946,10.432c1.678,0,3.302-0.196,4.859-0.548l-2.148-6.702h-5.609l-2.135,6.661
		C28.522,10.22,30.205,10.432,31.946,10.432z"/>
</g>
</svg>
